<define-tag pagetitle>DLA-1109-1 libraw</define-tag>
<define-tag report_date>2017-9-24</define-tag>
<define-tag secrefs>CVE-2017-14608</define-tag>
<define-tag packages>libraw</define-tag>
<define-tag isvulnerable>yes</define-tag>
<define-tag fixed>yes</define-tag>
<define-tag fixed-section>no</define-tag>

#use wml::debian::security

