<define-tag pagetitle>DLA-705-1 python-imaging</define-tag>
<define-tag report_date>2016-11-7</define-tag>
<define-tag secrefs>CVE-2016-9189 CVE-2016-9190</define-tag>
<define-tag packages>python-imaging</define-tag>
<define-tag isvulnerable>yes</define-tag>
<define-tag fixed>yes</define-tag>
<define-tag fixed-section>no</define-tag>

#use wml::debian::security

