<define-tag pagetitle>DLA-666-1 guile-2.0</define-tag>
<define-tag report_date>2016-10-18</define-tag>
<define-tag secrefs>CVE-2016-8605 CVE-2016-8606 Bug#840555 Bug#840556</define-tag>
<define-tag packages>guile-2.0</define-tag>
<define-tag isvulnerable>yes</define-tag>
<define-tag fixed>yes</define-tag>
<define-tag fixed-section>no</define-tag>

#use wml::debian::security

