<define-tag pagetitle>DLA-595-1 wireshark</define-tag>
<define-tag report_date>2016-8-15</define-tag>
<define-tag secrefs>CVE-2016-6504 CVE-2016-6505 CVE-2016-6506 CVE-2016-6507 CVE-2016-6508 CVE-2016-6509 CVE-2016-6510 CVE-2016-6511</define-tag>
<define-tag packages>wireshark</define-tag>
<define-tag isvulnerable>yes</define-tag>
<define-tag fixed>yes</define-tag>
<define-tag fixed-section>no</define-tag>

#use wml::debian::security

